^C:\USERS\ROBBIE\SOURCE\REPOS\GDSTRUCT FINALS1\GDSTRUCT FINALS1\DEBUG\SOURCE.OBJ
C:\USERS\ROBBIE\SOURCE\REPOS\GDSTRUCT FINALS1\DEBUG\GDSTRUCT FINALS1.EXE
C:\USERS\ROBBIE\SOURCE\REPOS\GDSTRUCT FINALS1\DEBUG\GDSTRUCT FINALS1.ILK
C:\USERS\ROBBIE\SOURCE\REPOS\GDSTRUCT FINALS1\DEBUG\GDSTRUCT FINALS1.PDB
